…
Option 1: Making sub-panels using ggplot and pivot_longer

The function ‘pivot_longer()’ is a data wrangling tool that takes data in multiple columns and condenses them into just two columns: one with the value in and the other with the column name. All you need to do is give the function a list of the columns you want to use:

For example:

select(df, c(dttm, temp, sal, wind_sp))

## # A tibble: 807 x 4
##    dttm                     temp   sal wind_sp
##    <dttm>                  <dbl> <dbl>   <dbl>
##  1 2018-10-15 12:05:22.000  18.1  31.8    10.1
##  2 2018-10-15 13:05:22.000  17.7  31.9    14.7
##  3 2018-10-15 14:05:22.000  17.9  31.8    16.4
##  4 2018-10-15 15:05:22.000  18.2  31.8    22.5
##  5 2018-10-15 16:05:22.000  18.2  31.8    20.1
##  6 2018-10-15 17:05:22.000  18.3  31.7    23.0
##  7 2018-10-15 18:05:22.000  18.3  31.7    21.6
##  8 2018-10-15 19:05:22.000  18.0  31.4    20.3
##  9 2018-10-15 20:05:22.000  18.4  31.3    27.2
## 10 2018-10-15 21:05:22.000  18.2  31.0    23.8
## # … with 797 more rows

pivot_longer(df, c(temp, sal, wind_sp)) %>%
  select(c(dttm, name, value))

## # A tibble: 2,421 x 3
##    dttm                    name    value
##    <dttm>                  <chr>   <dbl>
##  1 2018-10-15 12:05:22.000 temp     18.1
##  2 2018-10-15 12:05:22.000 sal      31.8
##  3 2018-10-15 12:05:22.000 wind_sp  10.1
##  4 2018-10-15 13:05:22.000 temp     17.7
##  5 2018-10-15 13:05:22.000 sal      31.9
##  6 2018-10-15 13:05:22.000 wind_sp  14.7
##  7 2018-10-15 14:05:22.000 temp     17.9
##  8 2018-10-15 14:05:22.000 sal      31.8
##  9 2018-10-15 14:05:22.000 wind_sp  16.4
## 10 2018-10-15 15:05:22.000 temp     18.2
## # … with 2,411 more rows
…
